"vertexlitgeneric"
{
	"$basetexture"	"models/props_gameplay/door_grate001_metalgrate"
	"$surfaceprop"	"metal"
	"$nocull" 1
	"$nodecal" 1

	"$AlphaTest" "1"
	"$AlphaTestReference" "0.37"
	"$AllowAlphaToCoverage" "1"
}