vertexlitgeneric
{
 $baseTexture "models\vehicles\airplane\747/AirIsland_Mpart"
 $bumpmap "models\vehicles\airplane\747/M_part_no"
 $normalmapalphaenvmapmask 1
 $envmap env_cubemap
 $envmapcontrast 1
 $envmapsaturation "0.600000"
 $envmaptint "[.08 .08 .08]"
 $detail "detail/metal_detail_01"
 $detailscale 30
 $detailblendfactor "0.200000"
 $phong 1
 $phongexponent 40
 $phongboost 1
 $phongfresnelranges "[1 10 42]"
 $rimlight 0
 $rimlightexponent 15
 "$rimlightboost " 1
}
