"vertexlitgeneric"
{
	"$basetexture" "oil/island_gantry_metal001_edge_b"
//	"$bumpmap" "Metal/island_gantry_metal001_normal"
//    "$envmap" "env_cubemap"
//    "$envmaptint" "[ 2 1 1 ]"
	"$surfaceprop" "metal"
	"%keywords" "tf"
}
