"VertexLitGeneric"
{
	"$basetexture" "models/DiggerCars/OLDSMOBILE_Vista/5869462c"
	"$bumpmap" "models/DiggerCars/shared/skin_nm"
        "$blendtintbybasealpha" 1
	$ambientocclusion 0
	"$normalmapalphaenvmapmask" 1
	"$nodecal" "1"
	"$halflambert" 1

	"$phong" "1" 
	"$phongboost" "1" 
	"$phongfresnelranges" "[.3 .5 1]" 
	"$phongexponent" 20

	"$colorfix" "{255 255 255}"
	"Proxies"
	{
		"Equals"
		{
			srcVar1 $colorfix
			resultVar	$color
		}
	}
}


