"VertexLitGeneric"
{
	"$basetexture" "models/DiggerCars/OLDSMOBILE_Vista/ec312e78"
	"$bumpmap" "models/DiggerCars/shared/skin_normal"
	"$detail" "models/DiggerCars/OLDSMOBILE_Vista/gaug"
	"$detailscale" "1"
	"$detailblendfactor" "1"
	"$detailblendmode" "5"

	"$phong" "1" 
	"$alphatest" "1"
	"$allowalphatocoverage" "1"
	$ambientocclusion 0
	"$phongboost" "0.08" 
	"$phongexponent" 3
	"$phongfresnelranges" "[1 1 1]" 
	"$colorfix" "{255 255 255}"
	"Proxies"
	{
		"Equals"
		{
			srcVar1 $colorfix
			resultVar	$color
		}
	}
}








