"VertexLitGeneric"
{
	"$basetexture" "models/DiggerCars/OLDSMOBILE_Vista/nach2"
	"$phong" "1" 
	"$alphatest" "1"
	"$allowalphatocoverage" "1"
	"$phongboost" "0.08" 
	"$phongexponent" 3
	"$phongfresnelranges" "[1 1 1]" 
	"$colorfix" "{255 255 255}"
	"Proxies"
	{
		"Equals"
		{
			srcVar1 $colorfix
			resultVar	$color
		}
	}
}











