"vertexlitgeneric"
{
	"$basetexture" "Metal/metaltruss001"
	"%compilepassbullets" 1
	"$surfaceprop" "metalgrate"
	"%keywords" "tf"
	"$AlphaTest" "1"
	"$AlphaTestReference" "0.2"
	"$AllowAlphaToCoverage" "1"
}
