"vertexlitgeneric"
{
	"$basetexture" "Metal/wall_island_heavy02c"
	"$bumpmap" "Metal/wall_island_heavy01-ssbump"
    "$ssbump" "1"
	"$surfaceprop" "metal"
	"%keywords" "tf"
//	"$envmapmask" "Metal/wall_island_heavy02b_envmask"
//	"$envmap" "env_cubemap"
//	"$envmaptint" "[.1 .1 .1]"
}
